..................
----------------------------------------------------------------------
Ran 18 tests in 0.114s

OK
Name             Stmts   Miss Branch BrPart  Cover   Missing
------------------------------------------------------------
Collatz.py          40      0     16      0   100%
TestCollatz.py      77      0      0      0   100%
------------------------------------------------------------
TOTAL              117      0     16      0   100%
