....................
----------------------------------------------------------------------
Ran 20 tests in 0.177s

OK
Name             Stmts   Miss Branch BrPart  Cover   Missing
------------------------------------------------------------
Collatz.py          33      0     16      0   100%
TestCollatz.py      83      0      2      1    99%   165->exit
------------------------------------------------------------
TOTAL              116      0     18      1    99%
