...................
----------------------------------------------------------------------
Ran 19 tests in 0.259s

OK
Name             Stmts   Miss Branch BrPart  Cover   Missing
------------------------------------------------------------
Collatz.py          36      0     20      0   100%
TestCollatz.py      83      0      0      0   100%
------------------------------------------------------------
TOTAL              119      0     20      0   100%
